<svg xmlns="http://www.w3.org/2000/svg" width="400" height="200" viewBox="0 0 400 300">
  <polyline points="50.0,180.0
51.5,179.9989966109717
53.0,179.9920932924351
54.5,179.9737171436578
56.0,179.93864382087227
57.5,179.88198859913416
59.0,179.7991975258539
60.5,179.6860386660018
62.0,179.5385934389859
63.5,179.3532480472036
65.0,179.12668499626614
66.50000000000003,178.85587470689657
68.00000000000003,178.5380672185008
69.50000000000003,178.17078398441203
71.00000000000003,177.75180975880832
72.50000000000001,177.2791845753036
74.00000000000003,176.75119581721154
75.50000000000003,176.16637037948314
77.00000000000003,175.5234669223172
78.50000000000003,174.82146821644423
80.00000000000003,174.05957358008362
81.50000000000003,173.23719140757382
83.00000000000003,172.3539317896761
84.50000000000003,171.40959922555132
86.00000000000003,170.40418542641004
87.50000000000003,169.3378622108359
89.00000000000003,168.21097449178208
90.50000000000004,167.0240333552413
92.00000000000004,165.7777092305888
93.50000000000004,164.47282515259872
95.00000000000004,163.11035011513354
96.50000000000004,161.6913925165072
98.00000000000004,160.21719369652078
99.50000000000004,158.6891215651722
101.00000000000004,157.1086643230385
102.50000000000004,155.47742427333182
104.00000000000004,153.79711172562833
105.50000000000004,152.0695389912707
107.00000000000006,150.29661447044347
108.50000000000006,148.48033683092203
110.00000000000006,146.6227892784945
111.50000000000006,144.72613391905716
113.00000000000006,142.79260621238296
114.50000000000006,140.8245095175632
116.00000000000006,138.82420973012282
117.50000000000006,136.79413001080835
119.00000000000006,134.73674560604968
120.50000000000006,132.6545787600948
122.00000000000006,130.55019371881784
123.50000000000007,128.4261918252002
125.00000000000007,126.28520670648523
126.50000000000007,124.12989955300594
128.00000000000006,121.96295448868605
129.50000000000006,119.78707403321421
131.00000000000006,117.60497465589147
132.50000000000006,115.41938242115214
134.00000000000006,113.23302872575769
135.50000000000006,111.04864612766418
137.00000000000009,108.86896426656249
138.50000000000009,106.69670587609228
140.00000000000009,104.5345828877289
141.50000000000009,102.38529262634363
143.00000000000009,100.25151409743725
144.50000000000009,98.13590436604657
146.00000000000009,96.04109502732467
147.50000000000009,93.96968876879396
149.00000000000009,91.9242560242727
150.50000000000009,89.90733171947471
152.00000000000009,87.92141210928243
153.50000000000009,85.96895170669298
155.00000000000009,84.05236030343774
156.50000000000009,82.17400008227504
158.0000000000001,80.33618282095614
159.5000000000001,78.54116718786436
161.0000000000001,76.7911561293276
162.5000000000001,75.08829434860402
164.0000000000001,73.43466587654103
165.5000000000001,71.83229173390744
167.0000000000001,70.28312768539885
168.5000000000001,68.78906208531649
170.0000000000001,67.35191381491903
171.5000000000001,65.97343031144773
173.0000000000001,64.65528568882519
174.5000000000001,63.39907895002645
176.0000000000001,62.20633229112457
177.5000000000001,61.07848949700825
179.0000000000001,60.01691442877363
180.5000000000001,59.02288960278874
182.0000000000001,58.09761486143154
183.5000000000001,57.24220613550099
185.0000000000001,56.45769429830153
186.5000000000001,55.74502411140078
188.0000000000001,55.10505326206021
189.5000000000001,54.538551492339565
191.0000000000001,54.046199819874175
192.5000000000001,53.62858985032548
194.0000000000001,53.28622318150512
195.50000000000014,53.019510899171976
197.00000000000014,52.828773164502536
198.50000000000014,52.714238893234466
200.00000000000014,52.67604552648372
201.50000000000014,52.714238893234466
203.00000000000014,52.828773164502536
204.50000000000014,53.019510899172005
206.00000000000014,53.28622318150519
207.50000000000014,53.628589850325525
209.00000000000014,54.04619981987423
210.50000000000014,54.53855149233965
212.00000000000014,55.10505326206032
213.50000000000014,55.74502411140091
215.00000000000014,56.45769429830173
216.50000000000014,57.24220613550115
218.00000000000014,58.09761486143168
219.50000000000014,59.02288960278892
221.00000000000014,60.01691442877383
222.50000000000014,61.07848949700846
224.00000000000017,62.20633229112477
225.50000000000017,63.39907895002672
227.00000000000017,64.65528568882543
228.50000000000017,65.973430311448
230.00000000000017,67.35191381491927
231.50000000000017,68.78906208531674
233.00000000000017,70.2831276853991
234.50000000000017,71.83229173390772
236.00000000000017,73.43466587654135
237.50000000000017,75.08829434860431
239.00000000000017,76.79115612932789
240.50000000000017,78.54116718786467
242.00000000000017,80.33618282095648
243.50000000000017,82.17400008227537
245.00000000000017,84.0523603034381
246.50000000000017,85.96895170669333
248.00000000000017,87.92141210928277
249.50000000000017,89.90733171947508
251.00000000000017,91.92425602427306
252.50000000000017,93.96968876879431
254.00000000000017,96.04109502732501
255.50000000000017,98.13590436604694
257.00000000000017,100.25151409743764
258.50000000000017,102.38529262634404
260.00000000000017,104.53458288772929
261.50000000000017,106.69670587609266
263.00000000000017,108.86896426656287
264.50000000000017,111.04864612766457
266.0000000000002,113.23302872575809
267.5000000000002,115.4193824211525
269.0000000000002,117.60497465589187
270.5000000000002,119.7870740332146
272.0000000000002,121.96295448868645
273.5000000000002,124.12989955300634
275.0000000000002,126.28520670648561
276.5000000000002,128.42619182520056
278.0000000000002,130.5501937188182
279.5000000000002,132.6545787600952
281.0000000000002,134.73674560605002
282.5000000000002,136.7941300108087
284.0000000000002,138.8242097301232
285.5000000000002,140.82450951756357
287.0000000000002,142.7926062123833
288.5000000000002,144.72613391905747
290.0000000000002,146.6227892784948
291.5000000000002,148.48033683092234
293.0000000000002,150.29661447044379
294.5000000000002,152.069538991271
296.0000000000002,153.79711172562864
297.5000000000002,155.4774242733321
299.0000000000002,157.1086643230388
300.5000000000002,158.68912156517248
302.0000000000002,160.21719369652106
303.5000000000002,161.69139251650745
305.0000000000002,163.1103501151338
306.5000000000002,164.47282515259894
308.0000000000002,165.77770923058904
309.5000000000002,167.02403335524153
311.0000000000002,168.21097449178228
312.5000000000002,169.33786221083608
314.0000000000002,170.40418542641024
315.5000000000002,171.4095992255515
317.0000000000002,172.35393178967627
318.5000000000002,173.23719140757396
320.0000000000002,174.05957358008376
321.5000000000002,174.82146821644437
323.0000000000002,175.5234669223173
324.5000000000002,176.16637037948323
326.0000000000002,176.75119581721162
327.5000000000002,177.27918457530367
329.0000000000002,177.7518097588084
330.5000000000002,178.17078398441208
332.0000000000002,178.53806721850086
333.5000000000002,178.85587470689663
335.0000000000002,179.1266849962662
336.5000000000002,179.35324804720364
338.0000000000002,179.53859343898594
339.5000000000002,179.68603866600182
341.0000000000002,179.79919752585394
342.5000000000002,179.88198859913416
344.0000000000002,179.93864382087227
345.5000000000002,179.9737171436578
347.0000000000002,179.9920932924351
348.5000000000002,179.9989966109717"
 style="fill:none;stroke:#e37222;stroke-width:3" />
 <g stroke="#0065bd" fill="#0065bd" stroke-width="4">
      <polyline points="200,30 200,250" stroke-dasharray="15,10">
      </polyline>
  </g>
 <g stroke="#0065bd" fill="#0065bd" stroke-width="4">
      <polyline points="30.0,183.8 370,183.8" stroke-dasharray="15,10">
      </polyline>
  </g>
</svg>