Gems included by the bundle:
  * addressable (2.8.6)
  * autoprefixer-rails (9.8.6.5)
  * bigdecimal (3.1.8)
  * colorator (1.1.0)
  * concurrent-ruby (1.2.3)
  * em-websocket (0.5.3)
  * eventmachine (1.2.7)
  * execjs (2.7.0)
  * ffi (1.17.0)
  * forwardable-extended (2.6.0)
  * google-protobuf (4.27.1)
  * http_parser.rb (0.8.0)
  * i18n (1.14.5)
  * jekyll (4.3.3)
  * jekyll-autoprefixer (1.0.2)
  * jekyll-gzip (2.5.1)
  * jekyll-sass-converter (3.0.0)
  * jekyll-watch (2.2.1)
  * kramdown (2.4.0)
  * kramdown-parser-gfm (1.1.0)
  * liquid (4.0.4)
  * listen (3.9.0)
  * mercenary (0.4.0)
  * pathutil (0.16.2)
  * public_suffix (5.1.1)
  * rake (13.2.1)
  * rb-fsevent (0.11.2)
  * rb-inotify (0.11.1)
  * rexml (3.2.6)
  * rouge (4.3.0)
  * safe_yaml (1.0.5)
  * sass-embedded (1.77.5)
  * terminal-table (3.0.2)
  * tzinfo (2.0.6)
  * tzinfo-data (1.2024.1)
  * uglifier (4.2.0)
  * unicode-display_width (2.5.0)
  * wdm (0.1.1)
  * webrick (1.8.1)
Use `bundle info` to print more detailed information about a gem
