digraph G {
  "addressable" -> "public_suffix";
  "autoprefixer-rails" -> "execjs";
  "em-websocket" -> "eventmachine";
  "em-websocket" -> "http_parser.rb";
  "google-protobuf" -> "bigdecimal";
  "google-protobuf" -> "rake";
  "i18n" -> "concurrent-ruby";
  "jekyll" -> "addressable";
  "jekyll" -> "colorator";
  "jekyll" -> "em-websocket";
  "jekyll" -> "i18n";
  "jekyll" -> "jekyll-sass-converter";
  "jekyll" -> "jekyll-watch";
  "jekyll" -> "kramdown";
  "jekyll" -> "kramdown-parser-gfm";
  "jekyll" -> "liquid";
  "jekyll" -> "mercenary";
  "jekyll" -> "pathutil";
  "jekyll" -> "rouge";
  "jekyll" -> "safe_yaml";
  "jekyll" -> "terminal-table";
  "jekyll" -> "webrick";
  "jekyll-autoprefixer" -> "autoprefixer-rails";
  "jekyll-gzip" -> "jekyll";
  "jekyll-sass-converter" -> "sass-embedded";
  "jekyll-watch" -> "listen";
  "kramdown" -> "rexml";
  "kramdown-parser-gfm" -> "kramdown";
  "listen" -> "rb-fsevent";
  "listen" -> "rb-inotify";
  "pathutil" -> "forwardable-extended";
  "rb-inotify" -> "ffi";
  "sass-embedded" -> "google-protobuf";
  "terminal-table" -> "unicode-display_width";
  "tzinfo" -> "concurrent-ruby";
  "tzinfo-data" -> "tzinfo";
  "uglifier" -> "execjs";
}
