<?xml version="1.0" encoding="UTF-8" standalone="no"?>
<!-- Created with Inkscape (http://www.inkscape.org/) -->

<svg
   version="1.1"
   id="svg1"
   width="400"
   height="300"
   viewBox="0 0 400 300"
   sodipodi:docname="card.svg"
   xml:space="preserve"
   inkscape:version="1.3.1 (91b66b0783, 2023-11-16)"
   xmlns:inkscape="http://www.inkscape.org/namespaces/inkscape"
   xmlns:sodipodi="http://sodipodi.sourceforge.net/DTD/sodipodi-0.dtd"
   xmlns:xlink="http://www.w3.org/1999/xlink"
   xmlns="http://www.w3.org/2000/svg"
   xmlns:svg="http://www.w3.org/2000/svg"><defs
     id="defs1"><inkscape:perspective
       sodipodi:type="inkscape:persp3d"
       inkscape:vp_x="-117.49819 : 267.24197 : 1"
       inkscape:vp_y="0 : 1352.2374 : 0"
       inkscape:vp_z="68.418093 : 267.24197 : 1"
       inkscape:persp3d-origin="-24.540051 : 244.70468 : 1"
       id="perspective1" /><inkscape:perspective
       sodipodi:type="inkscape:persp3d"
       inkscape:vp_x="-14.084303 : 252.21836 : 1"
       inkscape:vp_y="0 : 811.34238 : 0"
       inkscape:vp_z="97.465456 : 252.21836 : 1"
       inkscape:persp3d-origin="41.690578 : 238.69598 : 1"
       id="perspective1-3" /><clipPath
       id="SVGID_2_">
			<use
   xlink:href="#SVGID_1_"
   overflow="visible"
   id="use1-4" />
		</clipPath><polygon
       id="SVGID_1_"
       points="260.923,109.869 471.367,231.369 228.368,371.665 17.924,250.165 " /><clipPath
       id="SVGID_2_-4">
			<use
   xlink:href="#SVGID_1_"
   overflow="visible"
   id="use1-4-9" />
		</clipPath><polygon
       id="polygon8"
       points="471.367,231.369 228.368,371.665 17.924,250.165 260.923,109.869 " /></defs><sodipodi:namedview
     id="namedview1"
     pagecolor="#ffffff"
     bordercolor="#000000"
     borderopacity="0.25"
     inkscape:showpageshadow="2"
     inkscape:pageopacity="0.0"
     inkscape:pagecheckerboard="0"
     inkscape:deskcolor="#d1d1d1"
     inkscape:zoom="1.2455958"
     inkscape:cx="38.535775"
     inkscape:cy="74.261651"
     inkscape:window-width="2304"
     inkscape:window-height="1190"
     inkscape:window-x="-11"
     inkscape:window-y="-11"
     inkscape:window-maximized="1"
     inkscape:current-layer="g1" /><g
     inkscape:groupmode="layer"
     inkscape:label="Image"
     id="g1"
     transform="matrix(2.651428,0,0,2.651428,-15.452355,1.2578252)"><g
       transform="matrix(0.00402944,0,0,0.0042178,531.86572,837.14975)"
       id="g7"><circle
         id="use1"
         stroke-width="0"
         stroke="none"
         r="1560"
         cx="-780"
         cy="0"
         style="fill:#ff0000" /><circle
         id="use2"
         stroke-width="0"
         stroke="none"
         r="1560"
         cx="780"
         cy="0"
         style="fill:#00ff00" /><circle
         id="use3"
         stroke-width="0"
         stroke="none"
         r="1560"
         cx="0"
         cy="1351"
         style="fill:#0000ff" /><path
         id="use4"
         d="M 0,-1351 A 1560,1560 0 0 0 0,1351 1560,1560 0 0 0 0,-1351"
         style="fill:#ffff00" /><path
         id="use5"
         d="M -1560.0003,1351 A 1560,1560 0 0 0 780.00032,-3.7379654e-6 1560,1560 0 0 0 -1560.0003,1351"
         style="fill:#ff00ff;stroke:#ff00ff;stroke-width:2" /><path
         id="use6"
         d="M 1560.0003,1351 A 1560,1560 0 0 0 -780.00032,-3.7379654e-6 1560,1560 0 0 0 1560.0003,1351"
         style="fill:#00ffff;stroke:#00ffff;stroke-width:2" /><path
         id="use7"
         d="M 780,0 A 1560,1560 0 0 1 0,1351 1560,1560 0 0 1 -780,0 1560,1560 0 0 1 780,0"
         style="fill:#ffffff;stroke:#ffffff;stroke-width:7" /></g><g
       id="g12-6"
       transform="matrix(14.72935,-5.7145252,5.7145252,14.72935,2.7734853,51.799335)"><path
         id="use1-2-6"
         d="m 2.991,0.815 a 3.1,3.1 0 0 0 0,-1.63 l 1.834,-0.496 a 5,5 0 0 1 0,2.622"
         style="fill:#fd5308" /><path
         id="use2-5-5"
         d="m 2.182782,2.2013107 a 3.1,3.1 0 0 0 0.815,-1.4116214 l 1.8362906,0.4874514 a 5,5 0 0 1 -1.311,2.2707186"
         style="fill:#fe2712" /><path
         id="use3-0-9"
         d="m 0.7896893,2.997782 a 3.1,3.1 0 0 0 1.4116214,-0.815 l 1.3465486,1.3402906 a 5,5 0 0 1 -2.2707186,1.311"
         style="fill:#a7194b" /><path
         id="use4-2-1"
         d="m -0.815,2.991 a 3.1,3.1 0 0 0 1.63,0 l 0.496,1.834 a 5,5 0 0 1 -2.622,0"
         style="fill:#8601af" /><path
         id="use5-3-5"
         d="m -2.2013107,2.182782 a 3.1,3.1 0 0 0 1.4116214,0.815 l -0.4874514,1.8362906 a 5,5 0 0 1 -2.2707186,-1.311"
         style="fill:#3d01a4" /><path
         id="use6-5-5"
         d="m -2.997782,0.7896893 a 3.1,3.1 0 0 0 0.815,1.4116214 l -1.3402906,1.3465486 a 5,5 0 0 1 -1.311,-2.2707186"
         style="fill:#0247fe" /><path
         id="use7-6-6"
         d="m -2.991,-0.815 a 3.1,3.1 0 0 0 0,1.63 l -1.834,0.496 a 5,5 0 0 1 0,-2.622"
         style="fill:#0392ce" /><path
         id="use8-3"
         d="m -2.182782,-2.2013107 a 3.1,3.1 0 0 0 -0.815,1.4116214 l -1.8362906,-0.4874514 a 5,5 0 0 1 1.311,-2.2707186"
         style="fill:#66b032" /><path
         id="use9-4"
         d="m -0.7896893,-2.997782 a 3.1,3.1 0 0 0 -1.4116214,0.815 l -1.3465486,-1.3402906 a 5,5 0 0 1 2.2707186,-1.311"
         style="fill:#d0ea2b" /><path
         id="use10-7"
         d="m 0.815,-2.991 a 3.1,3.1 0 0 0 -1.63,0 l -0.496,-1.834 a 5,5 0 0 1 2.622,0"
         style="fill:#fefe33" /><path
         id="use11-6"
         d="m 2.2013107,-2.182782 a 3.1,3.1 0 0 0 -1.4116214,-0.815 l 0.4874514,-1.8362906 a 5,5 0 0 1 2.2707186,1.311"
         style="fill:#fabc02" /><path
         id="use12-0"
         d="m 2.997782,-0.7896893 a 3.1,3.1 0 0 0 -0.815,-1.4116214 l 1.3402906,-1.3465486 a 5,5 0 0 1 1.311,2.2707186"
         style="fill:#fb9902" /></g><g
       id="g12"
       transform="matrix(-12.737286,-2.2239521,2.2239521,-12.737286,139.48486,101.20997)"><path
         id="use1-2"
         d="m 2.991,0.815 a 3.1,3.1 0 0 0 0,-1.63 l 1.834,-0.496 a 5,5 0 0 1 0,2.622"
         style="fill:#fd5308" /><path
         id="use2-5"
         d="m 2.182782,2.2013107 a 3.1,3.1 0 0 0 0.815,-1.4116214 l 1.8362906,0.4874514 a 5,5 0 0 1 -1.311,2.2707186"
         style="fill:#fe2712" /><path
         id="use3-0"
         d="m 0.7896893,2.997782 a 3.1,3.1 0 0 0 1.4116214,-0.815 l 1.3465486,1.3402906 a 5,5 0 0 1 -2.2707186,1.311"
         style="fill:#a7194b" /><path
         id="use4-2"
         d="m -0.815,2.991 a 3.1,3.1 0 0 0 1.63,0 l 0.496,1.834 a 5,5 0 0 1 -2.622,0"
         style="fill:#8601af" /><path
         id="use5-3"
         d="m -2.2013107,2.182782 a 3.1,3.1 0 0 0 1.4116214,0.815 l -0.4874514,1.8362906 a 5,5 0 0 1 -2.2707186,-1.311"
         style="fill:#3d01a4" /><path
         id="use6-5"
         d="m -2.997782,0.7896893 a 3.1,3.1 0 0 0 0.815,1.4116214 l -1.3402906,1.3465486 a 5,5 0 0 1 -1.311,-2.2707186"
         style="fill:#0247fe" /><path
         id="use7-6"
         d="m -2.991,-0.815 a 3.1,3.1 0 0 0 0,1.63 l -1.834,0.496 a 5,5 0 0 1 0,-2.622"
         style="fill:#0392ce" /><path
         id="use8"
         d="m -2.182782,-2.2013107 a 3.1,3.1 0 0 0 -0.815,1.4116214 l -1.8362906,-0.4874514 a 5,5 0 0 1 1.311,-2.2707186"
         style="fill:#66b032" /><path
         id="use9"
         d="m -0.7896893,-2.997782 a 3.1,3.1 0 0 0 -1.4116214,0.815 l -1.3465486,-1.3402906 a 5,5 0 0 1 2.2707186,-1.311"
         style="fill:#d0ea2b" /><path
         id="use10"
         d="m 0.815,-2.991 a 3.1,3.1 0 0 0 -1.63,0 l -0.496,-1.834 a 5,5 0 0 1 2.622,0"
         style="fill:#fefe33" /><path
         id="use11"
         d="m 2.2013107,-2.182782 a 3.1,3.1 0 0 0 -1.4116214,-0.815 l 0.4874514,-1.8362906 a 5,5 0 0 1 2.2707186,1.311"
         style="fill:#fabc02" /><path
         id="use12"
         d="m 2.997782,-0.7896893 a 3.1,3.1 0 0 0 -0.815,-1.4116214 l 1.3402906,-1.3465486 a 5,5 0 0 1 1.311,2.2707186"
         style="fill:#fb9902" /></g><g
       id="g12-67"
       transform="matrix(10.014309,-5.1944592,5.1944592,10.014309,56.161548,50.557522)"><path
         id="use1-2-1"
         d="m 2.991,0.815 a 3.1,3.1 0 0 0 0,-1.63 l 1.834,-0.496 a 5,5 0 0 1 0,2.622"
         style="fill:#fd5308" /><path
         id="use2-5-50"
         d="m 2.182782,2.2013107 a 3.1,3.1 0 0 0 0.815,-1.4116214 l 1.8362906,0.4874514 a 5,5 0 0 1 -1.311,2.2707186"
         style="fill:#fe2712" /><path
         id="use3-0-99"
         d="m 0.7896893,2.997782 a 3.1,3.1 0 0 0 1.4116214,-0.815 l 1.3465486,1.3402906 a 5,5 0 0 1 -2.2707186,1.311"
         style="fill:#a7194b" /><path
         id="use4-2-3"
         d="m -0.815,2.991 a 3.1,3.1 0 0 0 1.63,0 l 0.496,1.834 a 5,5 0 0 1 -2.622,0"
         style="fill:#8601af" /><path
         id="use5-3-2"
         d="m -2.2013107,2.182782 a 3.1,3.1 0 0 0 1.4116214,0.815 l -0.4874514,1.8362906 a 5,5 0 0 1 -2.2707186,-1.311"
         style="fill:#3d01a4" /><path
         id="use6-5-8"
         d="m -2.997782,0.7896893 a 3.1,3.1 0 0 0 0.815,1.4116214 l -1.3402906,1.3465486 a 5,5 0 0 1 -1.311,-2.2707186"
         style="fill:#0247fe" /><path
         id="use7-6-65"
         d="m -2.991,-0.815 a 3.1,3.1 0 0 0 0,1.63 l -1.834,0.496 a 5,5 0 0 1 0,-2.622"
         style="fill:#0392ce" /><path
         id="use8-4"
         d="m -2.182782,-2.2013107 a 3.1,3.1 0 0 0 -0.815,1.4116214 l -1.8362906,-0.4874514 a 5,5 0 0 1 1.311,-2.2707186"
         style="fill:#66b032" /><path
         id="use9-8"
         d="m -0.7896893,-2.997782 a 3.1,3.1 0 0 0 -1.4116214,0.815 l -1.3465486,-1.3402906 a 5,5 0 0 1 2.2707186,-1.311"
         style="fill:#d0ea2b" /><path
         id="use10-3"
         d="m 0.815,-2.991 a 3.1,3.1 0 0 0 -1.63,0 l -0.496,-1.834 a 5,5 0 0 1 2.622,0"
         style="fill:#fefe33" /><path
         id="use11-4"
         d="m 2.2013107,-2.182782 a 3.1,3.1 0 0 0 -1.4116214,-0.815 l 0.4874514,-1.8362906 a 5,5 0 0 1 2.2707186,1.311"
         style="fill:#fabc02" /><path
         id="use12-02"
         d="m 2.997782,-0.7896893 a 3.1,3.1 0 0 0 -0.815,-1.4116214 l 1.3402906,-1.3465486 a 5,5 0 0 1 1.311,2.2707186"
         style="fill:#fb9902" /></g><g
       id="g12-7"
       transform="matrix(-5.8547492,-0.60390361,0.60390361,-5.8547492,55.764622,50.203424)"><path
         id="use1-2-9"
         d="m 2.991,0.815 a 3.1,3.1 0 0 0 0,-1.63 l 1.834,-0.496 a 5,5 0 0 1 0,2.622"
         style="fill:#fd5308" /><path
         id="use2-5-3"
         d="m 2.182782,2.2013107 a 3.1,3.1 0 0 0 0.815,-1.4116214 l 1.8362906,0.4874514 a 5,5 0 0 1 -1.311,2.2707186"
         style="fill:#fe2712" /><path
         id="use3-0-91"
         d="m 0.7896893,2.997782 a 3.1,3.1 0 0 0 1.4116214,-0.815 l 1.3465486,1.3402906 a 5,5 0 0 1 -2.2707186,1.311"
         style="fill:#a7194b" /><path
         id="use4-2-4"
         d="m -0.815,2.991 a 3.1,3.1 0 0 0 1.63,0 l 0.496,1.834 a 5,5 0 0 1 -2.622,0"
         style="fill:#8601af" /><path
         id="use5-3-6"
         d="m -2.2013107,2.182782 a 3.1,3.1 0 0 0 1.4116214,0.815 l -0.4874514,1.8362906 a 5,5 0 0 1 -2.2707186,-1.311"
         style="fill:#3d01a4" /><path
         id="use6-5-3"
         d="m -2.997782,0.7896893 a 3.1,3.1 0 0 0 0.815,1.4116214 l -1.3402906,1.3465486 a 5,5 0 0 1 -1.311,-2.2707186"
         style="fill:#0247fe" /><path
         id="use7-6-5"
         d="m -2.991,-0.815 a 3.1,3.1 0 0 0 0,1.63 l -1.834,0.496 a 5,5 0 0 1 0,-2.622"
         style="fill:#0392ce" /><path
         id="use8-9"
         d="m -2.182782,-2.2013107 a 3.1,3.1 0 0 0 -0.815,1.4116214 l -1.8362906,-0.4874514 a 5,5 0 0 1 1.311,-2.2707186"
         style="fill:#66b032" /><path
         id="use9-0"
         d="m -0.7896893,-2.997782 a 3.1,3.1 0 0 0 -1.4116214,0.815 l -1.3465486,-1.3402906 a 5,5 0 0 1 2.2707186,-1.311"
         style="fill:#d0ea2b" /><path
         id="use10-8"
         d="m 0.815,-2.991 a 3.1,3.1 0 0 0 -1.63,0 l -0.496,-1.834 a 5,5 0 0 1 2.622,0"
         style="fill:#fefe33" /><path
         id="use11-3"
         d="m 2.2013107,-2.182782 a 3.1,3.1 0 0 0 -1.4116214,-0.815 l 0.4874514,-1.8362906 a 5,5 0 0 1 2.2707186,1.311"
         style="fill:#fabc02" /><path
         id="use12-6"
         d="m 2.997782,-0.7896893 a 3.1,3.1 0 0 0 -0.815,-1.4116214 l 1.3402906,-1.3465486 a 5,5 0 0 1 1.311,2.2707186"
         style="fill:#fb9902" /></g><g
       id="g12-9"
       transform="matrix(-1.6374111,-8.622177,8.622177,-1.6374111,143.96296,-10.525146)"><path
         id="use1-2-4"
         d="m 2.991,0.815 a 3.1,3.1 0 0 0 0,-1.63 l 1.834,-0.496 a 5,5 0 0 1 0,2.622"
         style="fill:#fd5308" /><path
         id="use2-5-6"
         d="m 2.182782,2.2013107 a 3.1,3.1 0 0 0 0.815,-1.4116214 l 1.8362906,0.4874514 a 5,5 0 0 1 -1.311,2.2707186"
         style="fill:#fe2712" /><path
         id="use3-0-6"
         d="m 0.7896893,2.997782 a 3.1,3.1 0 0 0 1.4116214,-0.815 l 1.3465486,1.3402906 a 5,5 0 0 1 -2.2707186,1.311"
         style="fill:#a7194b" /><path
         id="use4-2-5"
         d="m -0.815,2.991 a 3.1,3.1 0 0 0 1.63,0 l 0.496,1.834 a 5,5 0 0 1 -2.622,0"
         style="fill:#8601af" /><path
         id="use5-3-26"
         d="m -2.2013107,2.182782 a 3.1,3.1 0 0 0 1.4116214,0.815 l -0.4874514,1.8362906 a 5,5 0 0 1 -2.2707186,-1.311"
         style="fill:#3d01a4" /><path
         id="use6-5-2"
         d="m -2.997782,0.7896893 a 3.1,3.1 0 0 0 0.815,1.4116214 l -1.3402906,1.3465486 a 5,5 0 0 1 -1.311,-2.2707186"
         style="fill:#0247fe" /><path
         id="use7-6-61"
         d="m -2.991,-0.815 a 3.1,3.1 0 0 0 0,1.63 l -1.834,0.496 a 5,5 0 0 1 0,-2.622"
         style="fill:#0392ce" /><path
         id="use8-38"
         d="m -2.182782,-2.2013107 a 3.1,3.1 0 0 0 -0.815,1.4116214 l -1.8362906,-0.4874514 a 5,5 0 0 1 1.311,-2.2707186"
         style="fill:#66b032" /><path
         id="use9-7"
         d="m -0.7896893,-2.997782 a 3.1,3.1 0 0 0 -1.4116214,0.815 l -1.3465486,-1.3402906 a 5,5 0 0 1 2.2707186,-1.311"
         style="fill:#d0ea2b" /><path
         id="use10-6"
         d="m 0.815,-2.991 a 3.1,3.1 0 0 0 -1.63,0 l -0.496,-1.834 a 5,5 0 0 1 2.622,0"
         style="fill:#fefe33" /><path
         id="use11-1"
         d="m 2.2013107,-2.182782 a 3.1,3.1 0 0 0 -1.4116214,-0.815 l 0.4874514,-1.8362906 a 5,5 0 0 1 2.2707186,1.311"
         style="fill:#fabc02" /><path
         id="use12-1"
         d="m 2.997782,-0.7896893 a 3.1,3.1 0 0 0 -0.815,-1.4116214 l 1.3402906,-1.3465486 a 5,5 0 0 1 1.311,2.2707186"
         style="fill:#fb9902" /></g><g
       id="g12-7-4"
       transform="matrix(4.1240807,-1.2223268,1.2223268,4.1240807,132.64995,89.537917)"><path
         id="use1-2-9-0"
         d="m 2.991,0.815 a 3.1,3.1 0 0 0 0,-1.63 l 1.834,-0.496 a 5,5 0 0 1 0,2.622"
         style="fill:#fd5308" /><path
         id="use2-5-3-8"
         d="m 2.182782,2.2013107 a 3.1,3.1 0 0 0 0.815,-1.4116214 l 1.8362906,0.4874514 a 5,5 0 0 1 -1.311,2.2707186"
         style="fill:#fe2712" /><path
         id="use3-0-91-9"
         d="m 0.7896893,2.997782 a 3.1,3.1 0 0 0 1.4116214,-0.815 l 1.3465486,1.3402906 a 5,5 0 0 1 -2.2707186,1.311"
         style="fill:#a7194b" /><path
         id="use4-2-4-0"
         d="m -0.815,2.991 a 3.1,3.1 0 0 0 1.63,0 l 0.496,1.834 a 5,5 0 0 1 -2.622,0"
         style="fill:#8601af" /><path
         id="use5-3-6-7"
         d="m -2.2013107,2.182782 a 3.1,3.1 0 0 0 1.4116214,0.815 l -0.4874514,1.8362906 a 5,5 0 0 1 -2.2707186,-1.311"
         style="fill:#3d01a4" /><path
         id="use6-5-3-4"
         d="m -2.997782,0.7896893 a 3.1,3.1 0 0 0 0.815,1.4116214 l -1.3402906,1.3465486 a 5,5 0 0 1 -1.311,-2.2707186"
         style="fill:#0247fe" /><path
         id="use7-6-5-5"
         d="m -2.991,-0.815 a 3.1,3.1 0 0 0 0,1.63 l -1.834,0.496 a 5,5 0 0 1 0,-2.622"
         style="fill:#0392ce" /><path
         id="use8-9-3"
         d="m -2.182782,-2.2013107 a 3.1,3.1 0 0 0 -0.815,1.4116214 l -1.8362906,-0.4874514 a 5,5 0 0 1 1.311,-2.2707186"
         style="fill:#66b032" /><path
         id="use9-0-2"
         d="m -0.7896893,-2.997782 a 3.1,3.1 0 0 0 -1.4116214,0.815 l -1.3465486,-1.3402906 a 5,5 0 0 1 2.2707186,-1.311"
         style="fill:#d0ea2b" /><path
         id="use10-8-0"
         d="m 0.815,-2.991 a 3.1,3.1 0 0 0 -1.63,0 l -0.496,-1.834 a 5,5 0 0 1 2.622,0"
         style="fill:#fefe33" /><path
         id="use11-3-3"
         d="m 2.2013107,-2.182782 a 3.1,3.1 0 0 0 -1.4116214,-0.815 l 0.4874514,-1.8362906 a 5,5 0 0 1 2.2707186,1.311"
         style="fill:#fabc02" /><path
         id="use12-6-6"
         d="m 2.997782,-0.7896893 a 3.1,3.1 0 0 0 -0.815,-1.4116214 l 1.3402906,-1.3465486 a 5,5 0 0 1 1.311,2.2707186"
         style="fill:#fb9902" /></g></g></svg>
