<?xml version="1.0" encoding="UTF-8" standalone="no"?>
<svg
   width="400"
   height="300"
   viewBox="0 0 400 300"
   version="1.1"
   id="svg12"
   sodipodi:docname="card.svg"
   inkscape:version="1.2.1 (9c6d41e410, 2022-07-14)"
   xmlns:inkscape="http://www.inkscape.org/namespaces/inkscape"
   xmlns:sodipodi="http://sodipodi.sourceforge.net/DTD/sodipodi-0.dtd"
   xmlns="http://www.w3.org/2000/svg"
   xmlns:svg="http://www.w3.org/2000/svg">
  <defs
     id="defs16">
    <marker
       markerWidth="0.52499998"
       markerHeight="0.99999994"
       refX="0"
       refY="0"
       orient="auto-start-reverse"
       id="marker5987"
       viewBox="0 0 0.525 1"
       inkscape:stockid="pin"
       style="overflow:visible"
       preserveAspectRatio="xMidYMid"
       inkscape:isstock="true"
       inkscape:collect="always">
      <path
         id="path5985"
         style="fill:context-stroke;stroke-linecap:butt"
         d="M 0,-1 1,0 0,1 -0.05,0 Z"
         sodipodi:nodetypes="sssssscsss"
         transform="scale(0.5)" />
    </marker>
    <marker
       style="overflow:visible"
       id="marker4386"
       refX="0"
       refY="0"
       orient="auto-start-reverse"
       inkscape:stockid="Arrow2"
       markerWidth="7.6999998"
       markerHeight="5.5999999"
       viewBox="0 0 7.7 5.6"
       inkscape:isstock="true"
       inkscape:collect="always"
       preserveAspectRatio="xMidYMid">
      <path
         transform="scale(0.7)"
         d="M -2,-4 9,0 -2,4 c 2,-2.33 2,-5.66 0,-8 z"
         style="fill:context-stroke;fill-rule:evenodd;stroke:none"
         id="path4384" />
    </marker>
    <marker
       style="overflow:visible"
       id="Arrow2"
       refX="0"
       refY="0"
       orient="auto-start-reverse"
       inkscape:stockid="Arrow2"
       markerWidth="7.6999998"
       markerHeight="5.5999999"
       viewBox="0 0 7.7 5.6"
       inkscape:isstock="true"
       inkscape:collect="always"
       preserveAspectRatio="xMidYMid">
      <path
         transform="scale(0.7)"
         d="M -2,-4 9,0 -2,4 c 2,-2.33 2,-5.66 0,-8 z"
         style="fill:context-stroke;fill-rule:evenodd;stroke:none"
         id="arrow2L" />
    </marker>
  </defs>
  <sodipodi:namedview
     id="namedview14"
     pagecolor="#ffffff"
     bordercolor="#000000"
     borderopacity="0.25"
     inkscape:showpageshadow="2"
     inkscape:pageopacity="0.0"
     inkscape:pagecheckerboard="0"
     inkscape:deskcolor="#d1d1d1"
     showgrid="false"
     inkscape:zoom="2.2250293"
     inkscape:cx="217.74994"
     inkscape:cy="122.24558"
     inkscape:window-width="1920"
     inkscape:window-height="1094"
     inkscape:window-x="-11"
     inkscape:window-y="-11"
     inkscape:window-maximized="1"
     inkscape:current-layer="layer1" />
  <g
     inkscape:groupmode="layer"
     id="layer2"
     inkscape:label="Gitter">
    <path
       style="fill:#e5e3da;fill-opacity:1;stroke:#e5e3da;stroke-width:1.95851;stroke-dasharray:none;stroke-opacity:1"
       d="M 143.70631,56.168735 V 251"
       id="path6965-8-6" />
    <path
       style="fill:#e5e3da;fill-opacity:1;stroke:#e5e3da;stroke-width:1.95851;stroke-dasharray:none;stroke-opacity:1"
       d="M 198.78685,56.168735 V 251"
       id="path6965-8-6-4-3" />
    <path
       style="fill:#e5e3da;fill-opacity:1;stroke:#e5e3da;stroke-width:1.95851;stroke-dasharray:none;stroke-opacity:1"
       d="M 253.86739,56.168735 V 251"
       id="path6965-8-6-4-3-2-5" />
    <path
       style="fill:#e5e3da;fill-opacity:1;stroke:#e5e3da;stroke-width:1.95851;stroke-dasharray:none;stroke-opacity:1"
       d="M 308.94793,56.168735 V 251"
       id="path6965-8-6-4-3-2-5-7-0" />
    <path
       style="fill:#e5e3da;fill-opacity:1;stroke:#e5e3da;stroke-width:1.95852;stroke-dasharray:none;stroke-opacity:1"
       d="M 88.625772,56.168735 V 251"
       id="path6965" />
    <path
       style="fill:#e5e3da;fill-opacity:1;stroke:#e5e3da;stroke-width:2.18392;stroke-dasharray:none;stroke-opacity:1"
       d="M 71,180.64086 H 324.37048"
       id="path10899-0" />
    <path
       style="fill:#e5e3da;fill-opacity:1;stroke:#e5e3da;stroke-width:2.18392;stroke-dasharray:none;stroke-opacity:1"
       d="M 71,126.52447 H 324.37048"
       id="path10899-9-0" />
    <path
       style="fill:#e5e3da;fill-opacity:1;stroke:#e5e3da;stroke-width:2.18392;stroke-dasharray:none;stroke-opacity:1"
       d="M 71,72.404673 H 324.37048"
       id="path10899-9-0-9-5" />
    <path
       style="fill:#e5e3da;fill-opacity:1;stroke:#e5e3da;stroke-width:2.18392;stroke-dasharray:none;stroke-opacity:1"
       d="M 71,234.76406 H 324.37048"
       id="path10899-9-0-9-5-9-0-3" />
  </g>
  <g
     inkscape:groupmode="layer"
     id="layer1"
     inkscape:label="Pfeile">
    <path
       style="fill:#e37222;stroke:#e37222;stroke-width:4.19962;stroke-dasharray:none;marker-end:url(#Arrow2)"
       d="M 197.9044,233.69063 V 92.93031"
       id="path3456" />
    <path
       style="fill:#a2ad00;fill-opacity:1;stroke:#a2ad00;stroke-width:3.77224;stroke-dasharray:none;stroke-opacity:1;marker-start:url(#marker5987);marker-end:url(#marker4386)"
       d="M 197.50633,234.07078 143.01279,95.324495"
       id="path4376" />
    <path
       style="fill:#0065bd;fill-opacity:1;stroke:#0065bd;stroke-width:3.68636;stroke-dasharray:none;stroke-opacity:1;marker-end:url(#Arrow2)"
       d="M 197.44909,234.67389 258.81106,93.992031"
       id="path5249" />
    <path
       style="fill:#e37222;stroke:#e37222;stroke-width:0.5"
       d="m 186.68009,98.67585 11.12288,-32.256357 11.91737,32.097458 z"
       id="path1855" />
    <path
       style="fill:#a2ad00;fill-opacity:1;stroke:#a2ad00;stroke-width:0.5;stroke-opacity:1"
       d="M 134.74479,104.64104 132.19561,70.616168 155.84152,95.37787 Z"
       id="path1855-5" />
    <path
       style="fill:#0065bd;fill-opacity:1;stroke:#0065bd;stroke-width:0.5;stroke-opacity:1"
       d="m 246.01331,94.451859 23.07395,-24.456645 -1.88464,33.748346 z"
       id="path1859" />
  </g>
</svg>
