<svg xmlns="http://www.w3.org/2000/svg" class="{{ include.class }}" viewBox="0 0 124 32">
  <g fill="currentColor">
    <path d="M11.07,10.74a5.07,5.07,0,0,1-1.29,3.43,4.33,4.33,0,0,1-3.14,1.09,3.91,3.91,0,0,1-3.25-1.52,6.57,6.57,0,0,1-1.2-4.13v-3A6.31,6.31,0,0,1,3.4,2.49,4.07,4.07,0,0,1,6.73,1,4.13,4.13,0,0,1,9.82,2.12a5.25,5.25,0,0,1,1.25,3.42H9.93A4.46,4.46,0,0,0,9,2.84,3,3,0,0,0,6.73,2,3,3,0,0,0,4.22,3.2a5.51,5.51,0,0,0-.9,3.4v3A5.89,5.89,0,0,0,4.19,13a2.83,2.83,0,0,0,2.45,1.23A3.12,3.12,0,0,0,9,13.44a4.49,4.49,0,0,0,.89-2.7Z"/>
    <path d="M20.32,11.19H15l-1.21,3.88H12.61L17.14,1.19h1l4.53,13.88H21.55Zm-5-1H20L17.65,2.73Z"/>
    <path d="M29.25,9.29H25.92v5.78H24.8V1.19h3.9a4,4,0,0,1,3,1.08,4.09,4.09,0,0,1,1.07,3,4.21,4.21,0,0,1-.66,2.36A3.44,3.44,0,0,1,30.33,9l3,5.9v.12H32.1Zm-3.32-1h3a2.56,2.56,0,0,0,2-.84,3.12,3.12,0,0,0,.75-2.16A3.1,3.1,0,0,0,30.88,3a2.92,2.92,0,0,0-2.19-.8H25.92Z"/>
    <path d="M43.18,2.22h-4V15.07H38V2.22H34v-1h9.2Z"/>
    <path d="M54,9.64a6.38,6.38,0,0,1-1.21,4.16,4.64,4.64,0,0,1-6.77,0A6.3,6.3,0,0,1,44.8,9.66v-3A6.37,6.37,0,0,1,46,2.48a4.61,4.61,0,0,1,6.78,0A6.46,6.46,0,0,1,54,6.67Zm-1.12-3A5.47,5.47,0,0,0,52,3.2a3.48,3.48,0,0,0-5.14,0,5.28,5.28,0,0,0-.94,3.35V9.64a5.39,5.39,0,0,0,.93,3.44,3.13,3.13,0,0,0,2.58,1.15A3.07,3.07,0,0,0,52,13.08a5.58,5.58,0,0,0,.88-3.44Z"/>
    <path d="M65.65,13.46a4.44,4.44,0,0,1-1.8,1.35,6.1,6.1,0,0,1-2.37.45A4.33,4.33,0,0,1,58,13.83a6,6,0,0,1-1.3-4V6.49a6.18,6.18,0,0,1,1.19-4.08A4.17,4.17,0,0,1,61.32,1a4.29,4.29,0,0,1,3.08,1.06,4.45,4.45,0,0,1,1.25,3.05H64.53a3.66,3.66,0,0,0-1-2.34A3.15,3.15,0,0,0,61.33,2a3.07,3.07,0,0,0-2.6,1.13,5.38,5.38,0,0,0-.86,3.31v3.2a5.31,5.31,0,0,0,1,3.37,3.22,3.22,0,0,0,2.67,1.2,4.18,4.18,0,0,0,3-1.15V9.48H61.41v-1h4.24Z"/>
    <path d="M73.28,9.29H70v5.78H68.84V1.19h3.9a4,4,0,0,1,3,1.08,4.09,4.09,0,0,1,1.07,3,4.21,4.21,0,0,1-.66,2.36A3.44,3.44,0,0,1,74.37,9l3,5.9v.12H76.14ZM70,8.28h3a2.56,2.56,0,0,0,2-.84,3.12,3.12,0,0,0,.75-2.16A3.1,3.1,0,0,0,74.91,3a2.92,2.92,0,0,0-2.19-.8H70Z"/>
    <path d="M86.32,11.19H81l-1.21,3.88H78.62L83.15,1.19h1l4.53,13.88H87.56Zm-5-1H86L83.66,2.73Z"/>
    <path d="M91.94,9.43v5.64H90.83V1.19H95a4,4,0,0,1,3,1.11,4.16,4.16,0,0,1,1.08,3,4.12,4.12,0,0,1-1.05,3,4.07,4.07,0,0,1-3,1.06Zm0-1h3a2.88,2.88,0,0,0,2.17-.8,3.12,3.12,0,0,0,.77-2.25,3.25,3.25,0,0,0-.78-2.3A2.79,2.79,0,0,0,95,2.22h-3Z"/>
    <path d="M110.53,15.07h-1.12V8.43h-6.68v6.64h-1.11V1.19h1.11V7.42h6.68V1.19h1.12Z"/>
    <path d="M117.17,8.74l3.55-7.55H122l-4.28,8.66v5.22h-1.11V9.85l-4.27-8.66h1.31Z"/>
    <path d="M4.87,25.81v4.88H2V16.81H6.85a4.51,4.51,0,0,1,3.37,1.28,4.53,4.53,0,0,1,1.26,3.32,4.24,4.24,0,0,1-1.24,3.22,4.78,4.78,0,0,1-3.44,1.18Zm0-2.34h2a1.58,1.58,0,0,0,1.27-.52,2.28,2.28,0,0,0,.45-1.53,2.7,2.7,0,0,0-.46-1.65,1.48,1.48,0,0,0-1.23-.62h-2Z"/>
    <path d="M16.85,28.36h5v2.33H14V16.81h2.87Z"/>
    <path d="M31.13,27.85H27.21l-.76,2.84h-3l4.44-13.88h2.63L35,30.69H31.89Zm-3.29-2.34h2.66l-1.33-4.95Z"/>
    <path d="M39.71,23l2.14-6.23H45l-3.81,8.85v5H38.25v-5l-3.82-8.85h3.13Z"/>
    <path d="M56.26,29.11a5.25,5.25,0,0,1-2,1.32,7.61,7.61,0,0,1-2.64.44,4.91,4.91,0,0,1-3.81-1.48,6.31,6.31,0,0,1-1.4-4.31v-2.5a6.75,6.75,0,0,1,1.28-4.42,4.59,4.59,0,0,1,3.75-1.55,4.9,4.9,0,0,1,3.49,1.12,5.21,5.21,0,0,1,1.36,3.5H53.47a3.12,3.12,0,0,0-.57-1.81,2.2,2.2,0,0,0-3.1.35,5.18,5.18,0,0,0-.55,2.64v2.52a5.06,5.06,0,0,0,.58,2.76,2.13,2.13,0,0,0,1.91.86,2.55,2.55,0,0,0,1.38-.33l.25-.17V25.5h-2V23.39h4.89Z"/>
    <path d="M63.2,25.62H61.78v5.07H58.91V16.81h4.58a4.73,4.73,0,0,1,3.34,1.09A4,4,0,0,1,68,21a4,4,0,0,1-2.06,3.87l2.49,5.68v.13H65.34Zm-1.43-2.34h1.63a1.53,1.53,0,0,0,1.29-.56,2.38,2.38,0,0,0,.43-1.49q0-2.09-1.67-2.09H61.78Z"/>
    <g>
      <path d="M78,19.5A4.5,4.5,0,1,1,73.5,24,4.51,4.51,0,0,1,78,19.5M78,17a7,7,0,1,0,7,7,7,7,0,0,0-7-7Z"/>
      <path class="needle" d="M76.92,22.92,75,27l4.08-1.92L81,21ZM78,24.54a.54.54,0,1,1,.54-.54h0A.54.54,0,0,1,78,24.54Z" fill="#e37222"/>
    </g>
    <path d="M96.87,16.81v9.61a4.43,4.43,0,0,1-1.22,3.31,5.79,5.79,0,0,1-6.94,0,4.46,4.46,0,0,1-1.21-3.36V16.81h2.89v9.55A2.81,2.81,0,0,0,90.78,28a1.7,1.7,0,0,0,1.42.51,1.68,1.68,0,0,0,1.41-.5A2.8,2.8,0,0,0,94,26.41v-9.6Z"/>
    <path d="M109.59,30.69h-2.87l-4.2-9.1v9.1H99.65V16.81h2.87l4.21,9.11V16.81h2.86Z"/>
    <path d="M112.5,30.69V16.81h3.76a5.24,5.24,0,0,1,4,1.54,6,6,0,0,1,1.51,4.23v2.25a6,6,0,0,1-1.48,4.29,5.35,5.35,0,0,1-4.08,1.56Zm2.87-11.54v9.22h.86a2.44,2.44,0,0,0,2-.74,4.31,4.31,0,0,0,.62-2.55V22.66a4.83,4.83,0,0,0-.56-2.71,2.27,2.27,0,0,0-1.9-.81Z"/>
  </g>
</svg>
