<svg xmlns="http://www.w3.org/2000/svg" class="{{ include.class }}" viewBox="0 0 32 32">
  <path  fill="#fff" d="M29.34,3.33a2.63,2.63,0,0,0-1.09.23L21.64,6.5,10.89,3.44a2.56,2.56,0,0,0-.73-.1,2.65,2.65,0,0,0-1.08.23L1.58,6.9A2.68,2.68,0,0,0,0,9.33V26a2.67,2.67,0,0,0,2.66,2.67,2.63,2.63,0,0,0,1.09-.23l6.61-2.93L21.1,28.57a2.56,2.56,0,0,0,.73.1,2.65,2.65,0,0,0,1.08-.23l7.5-3.33A2.68,2.68,0,0,0,32,22.67V6A2.67,2.67,0,0,0,29.34,3.33Z"/>
  <polygon class="fold-right" fill="#e37222" points="22.17 8.63 29.83 5.23 29.83 23 22.17 26.4 22.17 8.63"/>
  <polygon class="fold-middle" fill="#0065bd" points="10.5 23.28 10.5 5.58 21.5 8.72 21.5 26.42 10.5 23.28"/>
  <polygon class="fold-left" fill="#a2ad00" points="2.17 9.01 9.83 5.6 9.83 23.36 2.17 26.77 2.17 9.01"/>
  <path d="M29.35,4.33a1.66,1.66,0,0,0-.69.15L21.71,7.56,10.62,4.4a1.63,1.63,0,0,0-1.13.08L2,7.81A1.67,1.67,0,0,0,1,9.33V26a1.66,1.66,0,0,0,2.34,1.52l6.95-3.08L21.38,27.6a1.63,1.63,0,0,0,1.13-.08L30,24.19a1.67,1.67,0,0,0,1-1.52V6A1.66,1.66,0,0,0,29.35,4.33ZM9.33,23,2.67,26V9.33l6.66-3ZM21,25.76,11,22.9V6.24L21,9.1Zm8.33-3.09-6.66,3V9l6.66-3Z"/>
</svg>
