<?xml version="1.0" encoding="UTF-8" standalone="no"?>
<!-- Created with Inkscape (http://www.inkscape.org/) -->

<svg
   width="200mm"
   height="200mm"
   viewBox="0 0 200 200"
   version="1.1"
   id="svg1"
   inkscape:version="1.3.1 (91b66b0783, 2023-11-16)"
   sodipodi:docname="linear.svg"
   xmlns:inkscape="http://www.inkscape.org/namespaces/inkscape"
   xmlns:sodipodi="http://sodipodi.sourceforge.net/DTD/sodipodi-0.dtd"
   xmlns="http://www.w3.org/2000/svg"
   xmlns:svg="http://www.w3.org/2000/svg">
  <sodipodi:namedview
     id="namedview1"
     pagecolor="#ffffff"
     bordercolor="#000000"
     borderopacity="0.25"
     inkscape:showpageshadow="2"
     inkscape:pageopacity="0.0"
     inkscape:pagecheckerboard="0"
     inkscape:deskcolor="#d1d1d1"
     inkscape:document-units="mm"
     showguides="true"
     inkscape:zoom="0.67793911"
     inkscape:cx="399.74091"
     inkscape:cy="419.65421"
     inkscape:window-width="1920"
     inkscape:window-height="974"
     inkscape:window-x="-11"
     inkscape:window-y="-11"
     inkscape:window-maximized="1"
     inkscape:current-layer="layer1">
    <sodipodi:guide
       position="-71.030223,128.5795"
       orientation="0,-1"
       id="guide2"
       inkscape:locked="false" />
  </sodipodi:namedview>
  <defs
     id="defs1" />
  <g
     inkscape:label="Ebene 1"
     inkscape:groupmode="layer"
     id="layer1">
    <path
       style="fill:#000000;stroke:#0065bd;stroke-width:10;stroke-opacity:1;stroke-dasharray:none"
       d="M 0.82789975,199.52397 74.235061,0.82790008"
       id="path1"
       sodipodi:nodetypes="cc" />
    <path
       style="fill:#000000;stroke:#0065bd;stroke-width:10;stroke-opacity:1;stroke-dasharray:none"
       d="M 199.68949,199.74175 125,1.0456831"
       id="path1-8"
       sodipodi:nodetypes="cc" />
    <path
       d="M 161.95827,99.340567 38.362566,99.219186"
       style="fill:#000000;stroke:#0065bd;stroke-width:6;stroke-opacity:1;stroke-dasharray:none"
       id="path1-83"
       sodipodi:nodetypes="cc" />
    <path
       d="M 138.96198,36.356884 61.474303,35.880741"
       style="fill:#000000;stroke:#0065bd;stroke-width:4;stroke-dasharray:none;stroke-opacity:1"
       id="path1-1"
       sodipodi:nodetypes="cc" />
    <path
       d="M 186.75799,165.77561 13.783433,165.45914"
       style="fill:#000000;stroke:#0065bd;stroke-width:8;stroke-opacity:1;stroke-dasharray:none"
       id="path1-3"
       sodipodi:nodetypes="cc" />
  </g>
</svg>
